…
``` r
full_df
```

    ## # A tibble: 52,199 × 22
    ##    files     path  week_1 week_2 week_3 week_4 week_5 week_6 week_7 week_8 uid  
    ##    <chr>     <chr>  <dbl>  <dbl>  <dbl>  <dbl>  <dbl>  <dbl>  <dbl>  <dbl> <chr>
    ##  1 con_01.c… ./da…   0.2   -1.31   0.66   1.96   0.23   1.09   0.05   1.94 <NA> 
    ##  2 con_02.c… ./da…   1.13  -0.88   1.07   0.17  -0.83  -0.31   1.58   0.44 <NA> 
    ##  3 con_03.c… ./da…   1.77   3.11   2.22   3.26   3.31   0.89   1.88   1.01 <NA> 
    ##  4 con_04.c… ./da…   1.04   3.66   1.22   2.33   1.47   2.7    1.87   1.66 <NA> 
    ##  5 con_05.c… ./da…   0.47  -0.58  -0.09  -1.37  -0.32  -2.17   0.45   0.48 <NA> 
    ##  6 con_06.c… ./da…   2.37   2.5    1.59  -0.16   2.08   3.07   0.78   2.35 <NA> 
    ##  7 con_07.c… ./da…   0.03   1.21   1.13   0.64   0.49  -0.12  -0.07   0.46 <NA> 
    ##  8 con_08.c… ./da…  -0.08   1.42   0.09   0.36   1.18  -1.16   0.33  -0.44 <NA> 
    ##  9 con_09.c… ./da…   0.08   1.24   1.44   0.41   0.95   2.75   0.3    0.03 <NA> 
    ## 10 con_10.c… ./da…   2.14   1.15   2.52   3.44   4.26   0.97   2.73  -0.53 <NA> 
    ## # … with 52,189 more rows, and 11 more variables: reported_date <dbl>,
    ## #   victim_last <chr>, victim_first <chr>, victim_race <chr>, victim_age <chr>,
    ## #   victim_sex <chr>, city <chr>, state <chr>, lat <dbl>, lon <dbl>,
    ## #   disposition <chr>
…
  full_df %>% 
  mutate(
    files = str_replace(files, ".csv", ""),
    group = str_sub(files, 1, 3)) %>% 
  pivot_longer(
    week_1:week_8,
    names_to = "week",
    values_to = "outcome",
    names_prefix = "week_") %>% 
  mutate(week = as.numeric(week)) %>% 
  select(group, subj = files, week, outcome)
tidy_df
```

    ## # A tibble: 417,592 × 4
    ##    group subj    week outcome
    ##    <chr> <chr>  <dbl>   <dbl>
    ##  1 con   con_01     1    0.2 
    ##  2 con   con_01     2   -1.31
    ##  3 con   con_01     3    0.66
    ##  4 con   con_01     4    1.96
    ##  5 con   con_01     5    0.23
    ##  6 con   con_01     6    1.09
    ##  7 con   con_01     7    0.05
    ##  8 con   con_01     8    1.94
    ##  9 con   con_02     1    1.13
    ## 10 con   con_02     2   -0.88
    ## # … with 417,582 more rows
…
